Nibble/simulation/qsim/Nibble.msim.vcd
$comment
	File created using the following command:
		vcd file Nibble.msim.vcd -direction
$end
$date
	Mon Nov  7 17:35:32 2016
$end
$version
	ModelSim Version 10.4d
$end
$timescale
	1ps
$end

$scope module sum1_vlg_vec_tst $end
$var reg 5 ! A [4:0] $end
$var wire 1 " OVF $end
$var wire 1 # S [4] $end
$var wire 1 $ S [3] $end
$var wire 1 % S [2] $end
$var wire 1 & S [1] $end
$var wire 1 ' S [0] $end

$scope module i1 $end
$var wire 1 ( gnd $end
$var wire 1 ) vcc $end
$var wire 1 * unknown $end
$var tri1 1 + devclrn $end
$var tri1 1 , devpor $end
$var tri1 1 - devoe $end
$var wire 1 . OVF~output_o $end
$var wire 1 / S[4]~output_o $end
$var wire 1 0 S[3]~output_o $end
$var wire 1 1 S[2]~output_o $end
$var wire 1 2 S[1]~output_o $end
$var wire 1 3 S[0]~output_o $end
$var wire 1 4 A[4]~input_o $end
$var wire 1 5 A[3]~input_o $end
$var wire 1 6 A[2]~input_o $end
$var wire 1 7 A[1]~input_o $end
$var wire 1 8 A[0]~input_o $end
$var wire 1 9 inst13~0_combout $end
$var wire 1 : inst9|inst6~combout $end
$var wire 1 ; inst7|inst6~combout $end
$var wire 1 < inst6|inst6~combout $end
$var wire 1 = inst5|inst6~combout $end
$upscope $end
$upscope $end
$enddefinitions $end
#0
$dumpvars
b0 !
0"
1'
0&
0%
0$
0#
0(
1)
x*
1+
1,
1-
0.
0/
00
01
02
13
04
05
06
07
08
09
0:
0;
0<
0=
$end
#10000
b1 !
18
03
0'
1=
12
1&
#20000
b11 !
b10 !
08
17
13
1'
#30000
b11 !
18
03
0'
0=
1<
11
02
0&
1%
#40000
b111 !
b101 !
b100 !
08
07
16
13
1'
#50000
b101 !
18
03
0'
1=
12
1&
#60000
b111 !
b110 !
08
17
13
1'
#70000
b111 !
18
03
0'
0=
0<
1;
10
01
02
0&
0%
1$
#80000
b1111 !
b1011 !
b1001 !
b1000 !
08
07
06
15
13
1'
#90000
b1001 !
18
03
0'
1=
12
1&
#100000
b1011 !
b1010 !
08
17
13
1'
#110000
b1011 !
18
03
0'
0=
1<
11
02
0&
1%
#120000
b1111 !
b1101 !
b1100 !
08
07
16
13
1'
#130000
b1101 !
18
03
0'
1=
12
1&
#140000
b1111 !
b1110 !
08
17
13
1'
#150000
b1111 !
18
03
0'
0=
0<
0;
1:
19
1.
1/
00
01
02
0&
0%
0$
1#
1"
#160000
b11111 !
b10111 !
b10011 !
b10001 !
b10000 !
08
07
06
05
14
13
1'
09
0.
0"
#170000
b10001 !
18
03
0'
1=
12
1&
#180000
b10011 !
b10010 !
08
17
13
1'
#190000
b10011 !
18
03
0'
0=
1<
11
02
0&
1%
#200000
b10111 !
b10101 !
b10100 !
08
07
16
13
1'
#210000
b10101 !
18
03
0'
1=
12
1&
#220000
b10111 !
b10110 !
08
17
13
1'
#230000
b10111 !
18
03
0'
0=
0<
1;
10
01
02
0&
0%
1$
#240000
b11111 !
b11011 !
b11001 !
b11000 !
08
07
06
15
13
1'
#250000
b11001 !
18
03
0'
1=
12
1&
#260000
b11011 !
b11010 !
08
17
13
1'
#270000
b11011 !
18
03
0'
0=
1<
11
02
0&
1%
#280000
b11111 !
b11101 !
b11100 !
08
07
16
13
1'
#290000
b11101 !
18
03
0'
1=
12
1&
#300000
b11111 !
b11110 !
08
17
13
1'
#310000
b11111 !
18
03
0'
0=
0<
0;
0:
0/
00
01
02
0&
0%
0$
0#
#320000
b1111 !
b111 !
b11 !
b1 !
b0 !
08
07
06
05
04
13
1'
#330000
b1 !
18
03
0'
1=
12
1&
#340000
b11 !
b10 !
08
17
13
1'
#350000
b11 !
18
03
0'
0=
1<
11
02
0&
1%
#360000
b111 !
b101 !
b100 !
08
07
16
13
1'
#370000
b101 !
18
03
0'
1=
12
1&
#380000
b111 !
b110 !
08
17
13
1'
#390000
b111 !
18
03
0'
0=
0<
1;
10
01
02
0&
0%
1$
#400000
b1111 !
b1011 !
b1001 !
b1000 !
08
07
06
15
13
1'
#410000
b1001 !
18
03
0'
1=
12
1&
#420000
b1011 !
b1010 !
08
17
13
1'
#430000
b1011 !
18
03
0'
0=
1<
11
02
0&
1%
#440000
b1111 !
b1101 !
b1100 !
08
07
16
13
1'
#450000
b1101 !
18
03
0'
1=
12
1&
#460000
b1111 !
b1110 !
08
17
13
1'
#470000
b1111 !
18
03
0'
0=
0<
0;
1:
19
1.
1/
00
01
02
0&
0%
0$
1#
1"
#480000
b11111 !
b10111 !
b10011 !
b10001 !
b10000 !
08
07
06
05
14
13
1'
09
0.
0"
#490000
b10001 !
18
03
0'
1=
12
1&
#500000
b10011 !
b10010 !
08
17
13
1'
#510000
b10011 !
18
03
0'
0=
1<
11
02
0&
1%
#520000
b10111 !
b10101 !
b10100 !
08
07
16
13
1'
#530000
b10101 !
18
03
0'
1=
12
1&
#540000
b10111 !
b10110 !
08
17
13
1'
#550000
b10111 !
18
03
0'
0=
0<
1;
10
01
02
0&
0%
1$
#560000
b11111 !
b11011 !
b11001 !
b11000 !
08
07
06
15
13
1'
#570000
b11001 !
18
03
0'
1=
12
1&
#580000
b11011 !
b11010 !
08
17
13
1'
#590000
b11011 !
18
03
0'
0=
1<
11
02
0&
1%
#600000
b11111 !
b11101 !
b11100 !
08
07
16
13
1'
#610000
b11101 !
18
03
0'
1=
12
1&
#620000
b11111 !
b11110 !
08
17
13
1'
#630000
b11111 !
18
03
0'
0=
0<
0;
0:
0/
00
01
02
0&
0%
0$
0#
#640000
b1111 !
b111 !
b11 !
b1 !
b0 !
08
07
06
05
04
13
1'
#650000
b1 !
18
03
0'
1=
12
1&
#660000
b11 !
b10 !
08
17
13
1'
#670000
b11 !
18
03
0'
0=
1<
11
02
0&
1%
#680000
b111 !
b101 !
b100 !
08
07
16
13
1'
#690000
b101 !
18
03
0'
1=
12
1&
#700000
b111 !
b110 !
08
17
13
1'
#710000
b111 !
18
03
0'
0=
0<
1;
10
01
02
0&
0%
1$
#720000
b1111 !
b1011 !
b1001 !
b1000 !
08
07
06
15
13
1'
#730000
b1001 !
18
03
0'
1=
12
1&
#740000
b1011 !
b1010 !
08
17
13
1'
#750000
b1011 !
18
03
0'
0=
1<
11
02
0&
1%
#760000
b1111 !
b1101 !
b1100 !
08
07
16
13
1'
#770000
b1101 !
18
03
0'
1=
12
1&
#780000
b1111 !
b1110 !
08
17
13
1'
#790000
b1111 !
18
03
0'
0=
0<
0;
1:
19
1.
1/
00
01
02
0&
0%
0$
1#
1"
#800000
b11111 !
b10111 !
b10011 !
b10001 !
b10000 !
08
07
06
05
14
13
1'
09
0.
0"
#810000
b10001 !
18
03
0'
1=
12
1&
#820000
b10011 !
b10010 !
08
17
13
1'
#830000
b10011 !
18
03
0'
0=
1<
11
02
0&
1%
#840000
b10111 !
b10101 !
b10100 !
08
07
16
13
1'
#850000
b10101 !
18
03
0'
1=
12
1&
#860000
b10111 !
b10110 !
08
17
13
1'
#870000
b10111 !
18
03
0'
0=
0<
1;
10
01
02
0&
0%
1$
#880000
b11111 !
b11011 !
b11001 !
b11000 !
08
07
06
15
13
1'
#890000
b11001 !
18
03
0'
1=
12
1&
#900000
b11011 !
b11010 !
08
17
13
1'
#910000
b11011 !
18
03
0'
0=
1<
11
02
0&
1%
#920000
b11111 !
b11101 !
b11100 !
08
07
16
13
1'
#930000
b11101 !
18
03
0'
1=
12
1&
#940000
b11111 !
b11110 !
08
17
13
1'
#950000
b11111 !
18
03
0'
0=
0<
0;
0:
0/
00
01
02
0&
0%
0$
0#
#960000
b1111 !
b111 !
b11 !
b1 !
b0 !
08
07
06
05
04
13
1'
#970000
b1 !
18
03
0'
1=
12
1&
#980000
b11 !
b10 !
08
17
13
1'
#990000
b11 !
18
03
0'
0=
1<
11
02
0&
1%
